[
{"title": "Willett Pot Still Reserve", "price": "$59.99", "number_reviews": null, "prodcut_url": "https://sipwhiskey.com/collections/sip-whiskey-staff-picks/products/willet-pot-still-reserve"},
{"title": "Blanton's Original Single Barrel 750ML", "price": "$199.99", "number_reviews": null, "prodcut_url": "https://sipwhiskey.com/collections/sip-whiskey-staff-picks/products/blantons-original-single-barrel"},
{"title": "Eagle Rare", "price": "$77.99", "number_reviews": null, "prodcut_url": "https://sipwhiskey.com/collections/sip-whiskey-staff-picks/products/eagle-rare"},
{"title": "Crown Royal Peach", "price": "$28.99", "number_reviews": null, "prodcut_url": "https://sipwhiskey.com/collections/sip-whiskey-staff-picks/products/crown-royal-peach"},
{"title": "Buffalo Trace Bourbon Cream", "price": "$16.99", "number_reviews": null, "prodcut_url": "https://sipwhiskey.com/collections/sip-whiskey-staff-picks/products/buffalo-trace-bourbon-cream"},
{"title": "Buffalo Trace Bourbon", "price": "$44.99", "number_reviews": null, "prodcut_url": "https://sipwhiskey.com/collections/sip-whiskey-staff-picks/products/buffalo-trace-bourbon"},
{"title": "Blanton's Honey Barrel 2021 Special Release 700ml", "price": "$1,399.99", "number_reviews": null, "prodcut_url": "https://sipwhiskey.com/products/blantons-honey-barrel-2021-special-release-700ml?_pos=3&_sid=4870824a2&_ss=r"},
{"title": "Brother's Bond Straight Bourbon Whiskey", "price": "$39.99", "number_reviews": null, "prodcut_url": "https://sipwhiskey.com/collections/sip-whiskey-staff-picks/products/brothers-bond-straight-bourbon-whiskey"},
{"title": "Colonel E.H. Taylor, Jr. Small Batch", "price": "$139.99", "number_reviews": null, "prodcut_url": "https://sipwhiskey.com/collections/sip-whiskey-staff-picks/products/e-h-taylor-small-batch"},
{"title": "Skrewball Peanut Butter Whiskey", "price": "$25.99", "number_reviews": null, "prodcut_url": "https://sipwhiskey.com/collections/sip-whiskey-staff-picks/products/skrewball-peanut-butter-whiskey"},
{"title": "The Sassenach", "price": "$98.99", "number_reviews": null, "prodcut_url": "https://sipwhiskey.com/collections/sip-whiskey-staff-picks/products/the-sassenach"},
{"title": "*Buffalo Trace Combo Pack* Eagle Rare 10 Year, Sazerac Rye, Buffalo Trace Bourbon", "price": "$159.99", "number_reviews": null, "prodcut_url": "https://sipwhiskey.com/collections/sip-whiskey-staff-picks/products/buffalo-trace-combo-pack-eagle-rare-10-year-sazerac-rye-buffalo-trace-bourbon"},
{"title": "Ciroc Pomegranate Vodka", "price": "$29.99", "number_reviews": null, "prodcut_url": "https://sipwhiskey.com/collections/sip-whiskey-staff-picks/products/ciroc-pomegranate-vodka"},
{"title": "Weller Special Combo Pack", "price": "$549.99", "number_reviews": null, "prodcut_url": "https://sipwhiskey.com/collections/sip-whiskey-staff-picks/products/weller-special-combo-pack"},
{"title": "High West American Prairie \"SDBB\" Store Pick", "price": "$69.99", "number_reviews": null, "prodcut_url": "https://sipwhiskey.com/collections/sip-whiskey-staff-picks/products/high-west-american-prairie-sdbb-store-pick"},
{"title": "Jack Daniel’s Holiday Advent Countdown Calendar", "price": "$34.99", "number_reviews": null, "prodcut_url": "https://sipwhiskey.com/collections/sip-whiskey-staff-picks/products/jack-daniel-s-holiday-countdown-calendar"},
{"title": "Blanton's Original Single Barrel, Blanton’s Gold Edition 700ml, Blanton’s Straight From The Barrel 700ml Special", "price": "$899.99", "number_reviews": null, "prodcut_url": "https://sipwhiskey.com/collections/sip-whiskey-staff-picks/products/blantons-original-single-barrel-blanton-s-gold-edition-700ml-blanton-s-straight-from-the-barrel-700ml-special"},
{"title": "Gift Card", "price": "$25.00", "number_reviews": null, "prodcut_url": "https://sipwhiskey.com/products/gift-card"},
{"title": "Blackened Cask Strength Private Select by \"San Diego Barrel Boys\"", "price": "$69.99", "number_reviews": null, "prodcut_url": "https://sipwhiskey.com/collections/sip-whiskey-staff-picks/products/blackened-cask-strength-private-select-by-sdbb"},
{"title": "Woodford Reserve Holiday Edition 2021", "price": "$59.99", "number_reviews": null, "prodcut_url": "https://sipwhiskey.com/collections/sip-whiskey-staff-picks/products/woodford-reserve-holiday-edition-2021"},
{"title": "Smoke Wagon Straight Bourbon Whiskey", "price": "$34.99", "number_reviews": null, "prodcut_url": "https://sipwhiskey.com/collections/bourbon/products/smoke-wagon-straight-bourbon-whiskey"},
{"title": "Ancient Age Bourbon Whiskey", "price": "$12.99", "number_reviews": null, "prodcut_url": "https://sipwhiskey.com/collections/bourbon/products/ancient-age-bourbon-whiskey"},
{"title": "High West American Prairie Bourbon", "price": "$39.99", "number_reviews": null, "prodcut_url": "https://sipwhiskey.com/collections/bourbon/products/high-west-american-prairie-bourbon"},
{"title": "Bowman Brothers Small Batch Bourbon", "price": "$29.99", "number_reviews": null, "prodcut_url": "https://sipwhiskey.com/collections/bourbon/products/bowman-brothers-small-batch-bourbon"},
{"title": "Breaker Wheated Bourbon", "price": "$64.99", "number_reviews": null, "prodcut_url": "https://sipwhiskey.com/collections/bourbon/products/breaker-wheated-bourbon"},
{"title": "Breaker Bourbon Whiskey", "price": "$54.99", "number_reviews": null, "prodcut_url": "https://sipwhiskey.com/collections/bourbon/products/breaker-bourbon-whiskey"},
{"title": "Breaker Bourbon Port Barrel Finished", "price": "$99.99", "number_reviews": null, "prodcut_url": "https://sipwhiskey.com/collections/bourbon/products/breaker-bourbon-port-barrel-finished"},
{"title": "Barrell Bourbon Batch 16", "price": "$99.99", "number_reviews": null, "prodcut_url": "https://sipwhiskey.com/collections/bourbon/products/barrell-bourbon-batch-16"},
{"title": "Black Ridge Kentucky Straight Bourbon 90 Proof", "price": "$0.00", "number_reviews": null, "prodcut_url": "https://sipwhiskey.com/collections/bourbon/products/black-ridge-kentucky-straight-bourbon-90-proof"},
{"title": "Barrell Bourbon Private Release A02i Blend", "price": "$119.99", "number_reviews": null, "prodcut_url": "https://sipwhiskey.com/collections/bourbon/products/barrell-bourbon-private-release-a02i-blend"},
{"title": "Blue Run 13.5 Year Old Single Barrel Cask Strength Bourbon", "price": "$0.00", "number_reviews": null, "prodcut_url": "https://sipwhiskey.com/collections/bourbon/products/blue-run-13-5-year-old-single-barrel-cask-strength-bourbon"},
{"title": "Angel's Envy Port Finish 2015", "price": "$299.99", "number_reviews": null, "prodcut_url": "https://sipwhiskey.com/collections/bourbon/products/angels-envy-port-finish"},
{"title": "Booker's Bourbon Batch 2018-2 \"Backyard BBQ\"", "price": "$68.99", "number_reviews": null, "prodcut_url": "https://sipwhiskey.com/collections/bourbon/products/bookers-bourbon-batch-2018-2-backyard-bbq"},
{"title": "Booker's Bourbon 2019-01 “Fish & Game Club”", "price": "$69.99", "number_reviews": null, "prodcut_url": "https://sipwhiskey.com/collections/bourbon/products/bookers-bourbon-2019-01-fish-game-club"},
{"title": "Booker’s 2019-04 “Beaten Biscuits”", "price": "$79.99", "number_reviews": null, "prodcut_url": "https://sipwhiskey.com/collections/bourbon/products/booker-s-2019-04-beaten-biscuits"},
{"title": "Booker's Bourbon 2019-02 “Booker's Country Ham”", "price": "$69.99", "number_reviews": null, "prodcut_url": "https://sipwhiskey.com/collections/bourbon/products/bookers-bourbon-2019-02-bookers-country-ham"},
{"title": "Booker’s \"Noe Strangers Batch\" Batch 2020-04", "price": "$69.99", "number_reviews": null, "prodcut_url": "https://sipwhiskey.com/collections/bourbon/products/booker-s-noe-strangers-batch-batch-2020-04"},
{"title": "Booker’s \"Pigskin Batch\" Batch 2020-03", "price": "$69.99", "number_reviews": null, "prodcut_url": "https://sipwhiskey.com/collections/bourbon/products/booker-s-pigskin-batch-batch-2020-03"},
{"title": "W.L. Weller Full Proof", "price": "$399.99", "number_reviews": null, "prodcut_url": "https://sipwhiskey.com/collections/bourbon/products/w-l-weller-full-proof-bourbon"},
{"title": "Weller Special Combo Pack", "price": "$549.99", "number_reviews": null, "prodcut_url": "https://sipwhiskey.com/collections/bourbon/products/weller-special-combo-pack"},
{"title": "*Buffalo Trace Starter Pack* Buffalo Trace Bourbon, Buffalo Trace Bourbon Cream, Sazerac Rye", "price": "$79.99", "number_reviews": null, "prodcut_url": "https://sipwhiskey.com/collections/bourbon/products/buffalo-trace-starter-pack-buffalo-trace-bourbon-buffalo-trace-bourbon-cream-sazerac-rye"},
{"title": "Sazerac Rye + Buffalo Trace Bourbon", "price": "$69.99", "number_reviews": null, "prodcut_url": "https://sipwhiskey.com/collections/bourbon/products/sazerac-rye-buffalo-trace-bourbon"},
{"title": "Stagg Jr.", "price": "$399.99", "number_reviews": null, "prodcut_url": "https://sipwhiskey.com/collections/bourbon/products/stagg-jr"},
{"title": "W.L. Weller Special Reserve 1 Liter", "price": "$79.99", "number_reviews": null, "prodcut_url": "https://sipwhiskey.com/collections/bourbon/products/w-l-weller-special-reserve-1-liter"},
{"title": "Kentucky’s Finest Bourbon Bundle", "price": "$169.99", "number_reviews": null, "prodcut_url": "https://sipwhiskey.com/collections/bourbon/products/kentucky-s-finest-bourbon-bundle"},
{"title": "Buffalo Trace Bourbon 1.75L", "price": "$149.99", "number_reviews": null, "prodcut_url": "https://sipwhiskey.com/collections/bourbon/products/buffalo-trace-bourbon-1-75l"},
{"title": "Buffalo Trace Bourbon 1L", "price": "$34.99", "number_reviews": null, "prodcut_url": "https://sipwhiskey.com/collections/bourbon/products/buffalo-trace-bourbon-1l"},
{"title": "W.L. Weller Special Reserve 1.75 Liter", "price": "$119.99", "number_reviews": null, "prodcut_url": "https://sipwhiskey.com/collections/bourbon/products/w-l-weller-special-reserve-1-75-liter"},
{"title": "Old Weller Antique 107", "price": "$149.99", "number_reviews": null, "prodcut_url": "https://sipwhiskey.com/collections/bourbon/products/old-weller-antique"},
{"title": "W.L. Weller 12 Years Old", "price": "$399.99", "number_reviews": null, "prodcut_url": "https://sipwhiskey.com/collections/bourbon/products/w-l-weller-12-years-old"},
{"title": "George T. Stagg 2010", "price": "$1,000.00", "number_reviews": null, "prodcut_url": "https://sipwhiskey.com/collections/bourbon/products/george-t-stagg-2010"},
{"title": "George T. Stagg 2013", "price": "$700.00", "number_reviews": null, "prodcut_url": "https://sipwhiskey.com/collections/bourbon/products/george-t-stagg-2013"},
{"title": "George T. Stagg 2016", "price": "$650.00", "number_reviews": null, "prodcut_url": "https://sipwhiskey.com/collections/bourbon/products/george-t-stagg-2016"},
{"title": "Buffalo Trace O.F.C 1995", "price": "$0.00", "number_reviews": null, "prodcut_url": "https://sipwhiskey.com/collections/bourbon/products/buffalo-trace-o-f-c-1995"},
{"title": "Thomas H. Handy Sazerac Straight Rye 2021", "price": "$999.99", "number_reviews": null, "prodcut_url": "https://sipwhiskey.com/collections/bourbon/products/thomas-h-handy-sazerac-straight-rye-2021"},
{"title": "Buffalo Trace Experimental Collection Straight Bourbon Whiskey Made With Peated Malt", "price": "$0.00", "number_reviews": null, "prodcut_url": "https://sipwhiskey.com/collections/bourbon/products/buffalo-trace-experimental-collection-straight-bourbon-whiskey-made-with-peated-malt"},
{"title": "Buffalo Trace Single Oak Project", "price": "$129.99", "number_reviews": null, "prodcut_url": "https://sipwhiskey.com/collections/bourbon/products/buffalo-trace-single-oak-project"},
{"title": "Pappy Van Winkle 20 Year Old Bourbon 2021", "price": "$0.00", "number_reviews": null, "prodcut_url": "https://sipwhiskey.com/collections/bourbon/products/pappy-van-winkle-20-year-old-bourbon-2021"},
{"title": "Pappy Van Winkle 23 Year Old Bourbon 2021", "price": "$0.00", "number_reviews": null, "prodcut_url": "https://sipwhiskey.com/collections/bourbon/products/pappy-van-winkle-23-year-old-bourbon-2021"},
{"title": "Nulu Single Barrel Straight Bourbon Whiskey “Nulu Lander”", "price": "$69.99", "number_reviews": null, "prodcut_url": "https://sipwhiskey.com/collections/bourbon/products/nulu-single-barrel-straight-bourbon-whiskey"},
{"title": "Woodford Reserve Brandy Cask Finish", "price": "$179.99", "number_reviews": null, "prodcut_url": "https://sipwhiskey.com/collections/bourbon/products/woodford-reserve-brandy-cask-finish"},
{"title": "Orphan Barrel Forged Oak", "price": "$139.99", "number_reviews": null, "prodcut_url": "https://sipwhiskey.com/collections/bourbon/products/orphan-barrel-forged-oak"},
{"title": "Bulleit Bourbon Single Barrel Hand Selected By Sip Whiskey and Nestor Liquor", "price": "$59.99", "number_reviews": null, "prodcut_url": "https://sipwhiskey.com/collections/bourbon/products/bulleit-bourbon-single-barrel-hand-selected-by-sip-whiskey-and-nestor-liquor"},
{"title": "1792 Small Batch", "price": "$32.99", "number_reviews": null, "prodcut_url": "https://sipwhiskey.com/collections/bourbon/products/1792-small-batch"},
{"title": "Elijah Craig Barrel Proof Batch C921 and Small Batch Bundle", "price": "$129.99", "number_reviews": null, "prodcut_url": "https://sipwhiskey.com/collections/bourbon/products/elijah-craig-barrel-proof-batch-b520-and-small-batch-bundle"},
{"title": "Woodford Reserve Batch Proof", "price": "$139.99", "number_reviews": null, "prodcut_url": "https://sipwhiskey.com/collections/bourbon/products/woodford-reserve-batch-proof"},
{"title": "Willett Family Estate Bottled Bourbon 14 Years Old Barrel No. 707", "price": "$999.99", "number_reviews": null, "prodcut_url": "https://sipwhiskey.com/collections/bourbon/products/willett-family-estate-bottled-bourbon-14-years-old-barrel-no-707"},
{"title": "Willett Family Estate Bottled Bourbon 22 Years Old Barrel No. B52", "price": "$2,199.99", "number_reviews": null, "prodcut_url": "https://sipwhiskey.com/collections/bourbon/products/willett-family-estate-bottled-bourbon-22-years-old-barrel-no-b52"},
{"title": "Willett Family Estate 5 Year Old Bourbon Whiskey", "price": "$499.99", "number_reviews": null, "prodcut_url": "https://sipwhiskey.com/collections/bourbon/products/willett-family-estate-6-year-old-bourbon-whiskey"},
{"title": "Willett Family Estate Bottled Bourbon 7 Years Old Barrel No. 6521 (Wax Top)", "price": "$1,599.99", "number_reviews": null, "prodcut_url": "https://sipwhiskey.com/collections/bourbon/products/willett-family-estate-bottled-bourbon-7-years-old-barrel-no-6521-wax-top"},
{"title": "Knob Creek \"SDBB\" Single Barrel Select Bourbon #4", "price": "$69.99", "number_reviews": null, "prodcut_url": "https://sipwhiskey.com/collections/bourbon/products/knob-creek-sdbb-single-barrel-select-bourbon-4"},
{"title": "Oak & Eden Bourbon & Vine", "price": "$59.99", "number_reviews": null, "prodcut_url": "https://sipwhiskey.com/collections/bourbon/products/oak-eden-bourbon-vine"},
{"title": "Knob Creek Single Barrel Select Bourbon ‘Selected By Fred Noe IV For SDBB #2", "price": "$59.99", "number_reviews": null, "prodcut_url": "https://sipwhiskey.com/collections/bourbon/products/knob-creek-single-barrel-select-bourbon-selected-by-fred-noe-iv-for-sdbb-2"},
{"title": "Smoke Wagon Straight Bourbon Red White And Blue +  Doc Swinson Alter Ego Bourbon", "price": "$99.99", "number_reviews": null, "prodcut_url": "https://sipwhiskey.com/collections/bourbon/products/smoke-wagon-straight-bourbon-red-white-and-blue-doc-swinson-alter-ego-bourbon"},
{"title": "Oak & Eden Wheat & Spire Whiskey", "price": "$42.99", "number_reviews": null, "prodcut_url": "https://sipwhiskey.com/collections/bourbon/products/oak-eden-wheat-spire-whiskey"},
{"title": "Ugly Dog S'mores Bourbon", "price": "$0.00", "number_reviews": null, "prodcut_url": "https://sipwhiskey.com/collections/bourbon/products/ugly-dog-smores-bourbon"},
{"title": "Oak & Eden 4 Grain & Spire", "price": "$42.99", "number_reviews": null, "prodcut_url": "https://sipwhiskey.com/collections/bourbon/products/oak-eden-4-grain-spire"},
{"title": "Doc Swinson's Bundle", "price": "$399.99", "number_reviews": null, "prodcut_url": "https://sipwhiskey.com/collections/bourbon/products/doc-swinsons-bundle"},
{"title": "Wild Turkey Bourbon 80 Proof", "price": "$25.99", "number_reviews": null, "prodcut_url": "https://sipwhiskey.com/collections/bourbon/products/wild-turkey-bourbon"},
{"title": "1994 Wild Turkey Tradition", "price": "$350.00", "number_reviews": null, "prodcut_url": "https://sipwhiskey.com/collections/bourbon/products/1994-wild-turkey-tradition"},
{"title": "Wild Turkey Decades", "price": "$179.99", "number_reviews": null, "prodcut_url": "https://sipwhiskey.com/collections/bourbon/products/wild-turkey-decades"},
{"title": "Wild Turkey Master's Keep Revival", "price": "$449.99", "number_reviews": null, "prodcut_url": "https://sipwhiskey.com/collections/bourbon/products/wild-turkey-masters-keep-revival"},
{"title": "Wild Turkey Master's Keep Bottled In Bond 17 Year Old", "price": "$549.99", "number_reviews": null, "prodcut_url": "https://sipwhiskey.com/collections/bourbon/products/wild-turkey-masters-keep-bottled-in-bond-17-year-old"},
{"title": "Wild Turkey 101 Bourbon Whiskey", "price": "$27.99", "number_reviews": null, "prodcut_url": "https://sipwhiskey.com/collections/bourbon/products/wild-turkey-101-bourbon-whiskey"},
{"title": "Wild Turkey Longbranch", "price": "$39.99", "number_reviews": null, "prodcut_url": "https://sipwhiskey.com/collections/bourbon/products/wild-turkey-longbranch"},
{"title": "Wild Turkey American Honey", "price": "$22.99", "number_reviews": null, "prodcut_url": "https://sipwhiskey.com/collections/bourbon/products/wild-turkey-american-honey"},
{"title": "Wild Turkey Kentucky Spirits Single Barrel", "price": "$65.99", "number_reviews": null, "prodcut_url": "https://sipwhiskey.com/collections/bourbon/products/wild-turkey-kentucky-spirits-single-barrel"},
{"title": "Brown Jug Bourbon Cream", "price": "$24.99", "number_reviews": null, "prodcut_url": "https://sipwhiskey.com/collections/bourbon/products/brown-jug-bourbon-cream"},
{"title": "Rare Hare 1953 Anniversary Edition 17 Year Old Bourbon", "price": "$549.99", "number_reviews": null, "prodcut_url": "https://sipwhiskey.com/collections/bourbon/products/rare-hare-1953-anniversary-edition-17-year-old-bourbon"},
{"title": "Jefferson's Ocean Aged At Sea Voyage 20", "price": "$89.99", "number_reviews": null, "prodcut_url": "https://sipwhiskey.com/collections/bourbon/products/jeffersons-ocean-aged-at-sea-voyage-20"},
{"title": "Nulu Straight Bourbon Whiskey Non Chill Filtered", "price": "$64.99", "number_reviews": null, "prodcut_url": "https://sipwhiskey.com/collections/bourbon/products/nulu-straight-bourbon-whiskey-non-chill-filtered"},
{"title": "Bardstown Bourbon Chateau de Laubade", "price": "$1,999.99", "number_reviews": null, "prodcut_url": "https://sipwhiskey.com/collections/bourbon/products/bardstown-bourbon-chateau-de-laubade"},
{"title": "Bardstown Bourbon MGM Resorts Reserve", "price": "$0.00", "number_reviews": null, "prodcut_url": "https://sipwhiskey.com/collections/bourbon/products/bardstown-bourbon-mgm-resorts-reserve"},
{"title": "Bardstown Bourbon Company Copper & Kings", "price": "$0.00", "number_reviews": null, "prodcut_url": "https://sipwhiskey.com/collections/bourbon/products/bardstown-bourbon-company-copper-kings"},
{"title": "Bardstown Bourbon Company Discovery Series #3", "price": "$149.99", "number_reviews": null, "prodcut_url": "https://sipwhiskey.com/collections/bourbon/products/bardstown-bourbon-company-discovery-series-3"},
{"title": "Bardstown Bourbon Company Fusion Series #3", "price": "$60.99", "number_reviews": null, "prodcut_url": "https://sipwhiskey.com/collections/bourbon/products/bardstown-bourbon-company-fusion-series-3"}