[
{"name": "Northstar - Men", "price": "Rs.7,999.00", "productCode": "820-2002", "color": "Grey", "sizes": ["41/7", "42/8", "43/9", "44/10"], "unavalabe_sizes": ["40/6", "45/11"], "url": "https://www.bata.com.pk/collections/online-exclusive/products/820-2002"},
{"name": "Bata Comfit - Women", "price": "Rs.5,499.00", "productCode": "515-6626", "color": "Black", "sizes": ["36/3", "37/4", "38/5", "39/6", "40/7"], "unavalabe_sizes": ["41/8"], "url": "https://www.bata.com.pk/collections/online-exclusive/products/515-6626"},
{"name": "Bata Comfit - Women", "price": "Rs.5,499.00", "productCode": "515-5626", "color": "Pink", "sizes": ["36/3", "37/4", "38/5", "39/6", "40/7"], "unavalabe_sizes": ["41/8"], "url": "https://www.bata.com.pk/collections/online-exclusive/products/515-5626"},
{"name": "Bata Comfit - Women", "price": "Rs.5,499.00", "productCode": "515-1624", "color": "White", "sizes": ["36/3", "37/4", "38/5", "39/6", "40/7"], "unavalabe_sizes": ["41/8"], "url": "https://www.bata.com.pk/collections/online-exclusive/products/515-1624"},
{"name": "Bata Comfit - Women", "price": "Rs.5,999.00", "productCode": "515-6621", "color": "Black", "sizes": ["36/3", "37/4", "38/5", "39/6", "40/7"], "unavalabe_sizes": ["41/8"], "url": "https://www.bata.com.pk/collections/online-exclusive/products/515-6621"},
{"name": "Northstar - Women", "price": "Rs.4,999.00", "productCode": "580-1006", "color": "White", "sizes": ["36/3", "37/4", "38/5", "39/6", "40/7", "41/8"], "url": "https://www.bata.com.pk/collections/online-exclusive/products/580-1006"},
{"name": "Bata Comfit - Women", "price": "Rs.5,499.00", "productCode": "515-9620", "color": "Blue", "sizes": ["36/3", "37/4", "38/5", "39/6", "40/7"], "unavalabe_sizes": ["41/8"], "url": "https://www.bata.com.pk/collections/online-exclusive/products/515-9620"},
{"name": "Bata Comfit - Women", "price": "Rs.4,999.00", "productCode": "515-5625", "color": "Beige", "sizes": ["36/3", "37/4", "38/5", "39/6", "40/7"], "unavalabe_sizes": ["41/8"], "url": "https://www.bata.com.pk/collections/online-exclusive/products/515-5625"},
{"name": "Bata Comfit - Women", "price": "Rs.5,499.00", "productCode": "515-5620", "color": "Grey", "sizes": ["36/3", "37/4", "38/5", "39/6", "40/7"], "unavalabe_sizes": ["41/8"], "url": "https://www.bata.com.pk/collections/online-exclusive/products/515-5620"},
{"name": "Power - Women", "price": "Rs.4,999.00", "productCode": "580-5004", "color": "Pink", "sizes": ["36/3", "37/4", "38/5", "39/6", "40/7", "41/8"], "url": "https://www.bata.com.pk/collections/online-exclusive/products/580-5004"},
{"name": "Power - Women", "price": "Rs.4,999.00", "productCode": "580-6004", "color": "Black", "sizes": ["36/3", "37/4", "38/5", "39/6", "40/7", "41/8"], "url": "https://www.bata.com.pk/collections/online-exclusive/products/580-6004"},
{"name": "Northstar - Men", "price": "Rs.5,999.00", "productCode": "880-1004", "color": "White", "sizes": ["40/6", "41/7", "42/8", "43/9", "44/10"], "unavalabe_sizes": ["45/11"], "url": "https://www.bata.com.pk/collections/online-exclusive/products/880-1004"},
{"name": "Power - Men", "price": "Rs.4,999.00", "productCode": "880-9005", "color": "Blue", "sizes": ["40/6", "41/7", "42/8", "43/9", "44/10", "45/11"], "url": "https://www.bata.com.pk/collections/online-exclusive/products/880-9005"},
{"name": "Power - Men", "price": "Rs.4,999.00", "productCode": "880-9008", "color": "Blue", "sizes": ["40/6", "41/7", "42/8", "43/9", "44/10", "45/11"], "url": "https://www.bata.com.pk/collections/online-exclusive/products/880-9008"},
{"name": "Northstar - Men", "price": "Rs.5,999.00", "productCode": "880-6004", "color": "Black", "sizes": ["40/6", "41/7", "43/9", "44/10"], "unavalabe_sizes": ["42/8", "45/11"], "url": "https://www.bata.com.pk/collections/online-exclusive/products/880-6004"},
{"name": "Northstar - Men", "price": "Rs.5,999.00", "productCode": "880-6007", "color": "Black", "sizes": ["40/6", "41/7", "43/9", "44/10"], "unavalabe_sizes": ["42/8", "45/11"], "url": "https://www.bata.com.pk/collections/online-exclusive/products/880-6007"},
{"name": "Northstar - Men", "price": "Rs.6,999.00", "productCode": "820-1006", "color": "White", "sizes": ["41/7", "42/8"], "unavalabe_sizes": ["40/6", "43/9", "44/10"], "url": "https://www.bata.com.pk/collections/online-exclusive/products/820-1006"},
{"name": "Northstar - Men", "price": "Rs.6,999.00", "productCode": "820-6006", "color": "Black", "sizes": ["40/6", "41/7", "42/8", "43/9", "44/10"], "url": "https://www.bata.com.pk/collections/online-exclusive/products/820-6006"},
{"name": "Power - Men", "price": "Rs.4,999.00", "productCode": "880-6008", "color": "Black", "sizes": ["40/6", "41/7", "42/8", "44/10", "45/11"], "unavalabe_sizes": ["43/9"], "url": "https://www.bata.com.pk/collections/online-exclusive/products/880-6008"},
{"name": "Northstar - Men", "price": "Rs.6,999.00", "productCode": "820-6001", "color": "Black", "sizes": ["43/9", "44/10"], "unavalabe_sizes": ["40/6", "41/7", "42/8", "45/11"], "url": "https://www.bata.com.pk/collections/online-exclusive/products/820-6001"},
{"name": "Northstar - Women", "price": "Rs.4,999.00", "productCode": "580-6006", "color": "Black", "sizes": ["36/3", "37/4", "38/5", "39/6", "40/7", "41/8"], "url": "https://www.bata.com.pk/collections/online-exclusive/products/580-6006"},
{"name": "Northstar - Women", "price": "Rs.7,999.00", "productCode": "520-8010", "color": "Golden", "sizes": ["37/4", "39/6", "40/7", "41/8"], "unavalabe_sizes": ["36/3", "38/5"], "url": "https://www.bata.com.pk/collections/online-exclusive/products/520-8010"},
{"name": "Power - Men", "price": "Rs.4,999.00", "productCode": "880-6005", "color": "Black", "sizes": ["40/6", "41/7", "42/8", "43/9"], "unavalabe_sizes": ["44/10", "45/11"], "url": "https://www.bata.com.pk/collections/online-exclusive/products/880-6005"},
{"name": "Northstar - Women", "price": "Rs.7,999.00", "productCode": "520-1012", "color": "White", "sizes": ["36/3", "37/4", "38/5", "39/6"], "unavalabe_sizes": ["40/7", "41/8"], "url": "https://www.bata.com.pk/collections/online-exclusive/products/520-1012"},
{"name": "Northstar - Women", "price": "Rs.7,999.00", "productCode": "520-5012", "color": "Pink", "sizes": ["36/3", "38/5", "39/6"], "unavalabe_sizes": ["37/4", "40/7", "41/8"], "url": "https://www.bata.com.pk/collections/online-exclusive/products/520-5012"},
{"name": "Northstar - Men", "price": "Rs.7,999.00", "productCode": "820-9002", "color": "Blue", "sizes": ["41/7"], "unavalabe_sizes": ["40/6", "42/8", "43/9", "44/10", "45/11"], "url": "https://www.bata.com.pk/collections/online-exclusive/products/820-9002"},
{"name": "Northstar - Men", "price": "Rs.5,999.00", "productCode": "880-9007", "color": "Blue", "sizes": ["41/7", "42/8"], "unavalabe_sizes": ["40/6", "43/9", "44/10", "45/11"], "url": "https://www.bata.com.pk/collections/online-exclusive/products/880-9007"}
]