[
{"name": "Bata Comfit - Women", "price": "Rs.3,999.00", "url": "/collections/women-1/products/580-8015"},
{"name": "Bata Comfit - Women", "price": "Rs.3,999.00", "url": "/collections/women-1/products/580-6038"},
{"name": "Bata Comfit - Women", "price": "Rs.4,499.00", "url": "/collections/women-1/products/580-6016"},
{"name": "Bata - Women", "price": "Rs.2,999.00", "url": "/collections/women-1/products/580-6002"},
{"name": "Bata Comfit - Women", "price": "Rs.3,999.00", "url": "/collections/women-1/products/580-5038"},
{"name": "Bata Comfit - Women", "price": "Rs.3,999.00", "url": "/collections/women-1/products/580-5014"},
{"name": "Bata - Women", "price": "Rs.2,999.00", "url": "/collections/women-1/products/580-3002"},
{"name": "Leena - Women", "price": "Rs.1,699.00", "url": "/collections/women-1/products/571-5902"},
{"name": "Leena - Women", "price": "Rs.1,699.00", "url": "/collections/women-1/products/571-5023"},
{"name": "Bata Comfit - Women", "price": "Rs.3,999.00", "url": "/collections/women-1/products/515-6017"},
{"name": "Bata Comfit - Women", "price": "Rs.3,999.00", "url": "/collections/women-1/products/515-5017"},
{"name": "Bata Comfit - Women", "price": "Rs.3,999.00", "url": "/collections/women-1/products/580-9020"},
{"name": "Bata Comfit - Women", "price": "Rs.4,999.00", "url": "/collections/women-1/products/580-5040"},
{"name": "Leena - Women", "price": "Rs.1,499.00", "url": "/collections/women-1/products/571-6010"},
{"name": "Bata Comfit - Women", "price": "Rs.3,999.00", "url": "/collections/women-1/products/515-9016"},
{"name": "Bata Comfit - Women", "price": "Rs.4,499.00", "url": "/collections/women-1/products/515-6013"},
{"name": "Bata Comfit - Women", "price": "Rs.2,799.00", "url": "/collections/women-1/products/515-5810"},
{"name": "Bata Comfit - Women", "price": "Rs.4,499.00", "url": "/collections/women-1/products/515-5013"},
{"name": "Bata Comfit - Women", "price": "Rs.3,999.00", "url": "/collections/women-1/products/515-3016"},
{"name": "Bata Comfit - Women", "price": "Rs.4,499.00", "url": "/collections/women-1/products/515-2012"},
{"name": "Marie Claire - Women", "price": "Rs.4,999.00", "url": "/collections/women-1/products/770-6261"},
{"name": "Marie Claire - Women", "price": "Rs.4,999.00", "url": "/collections/women-1/products/770-5261"},
{"name": "Bata Comfit - Women", "price": "Rs.2,499.00", "url": "/collections/women-1/products/671-6484"},
{"name": "Bata - Women", "price": "Rs.1,299.00", "url": "/collections/women-1/products/671-5142"}
]