title,companyName,companyLocation,salary
Python Developer,Tangent Technologies Pvt Ltd,Abbottabad,"Rs 50,000 - Rs 100,000 a month"
Python Developer,Britannia Airport Cars,Islamabad,"Rs 40,000 - Rs 60,000 a month"
Python/Django Developer,,Lahore,Full-time
Computer Vision Research Assistant Position,FAST,Islamabad,"Rs 70,000 a month"
Paid Internship for : Python / Javascript / Node.js / Json,System Development Services.,Karachi,"Rs 15,000 - Rs 25,000 a month"
Software Support Engineer,,Lahore,"Rs 60,000 a month"
Python/NodeJS Developer,Syslab Technologies,Islamabad,"Rs 130,000 a month"
Python Engineer,,Lahore,"Rs 50,000 - Rs 120,000 a month"
Research Analysts / Writers,Edvise Hub,Karachi,"Rs 55,000 a month"
Python Developer,Techesthete,Lahore,Full-time
Python Developer,Pixarsart,Lahore,"Rs 75,000 - Rs 90,000 a month"
Embedded System Engineer,,Lahore,"Rs 45,000 a month"
Python Developer,Zelotic,Lahore,Full-time
Python Developer,Kaleido Ventures Private Limited,Faisalabad,"Rs 75,000 a month"
Associate Software Engineer,The Code Genesis,Lahore,"Rs 50,000 - Rs 70,000 a month"
Django Developer,Astute Softwares,Lahore,"Rs 70,000 - Rs 140,000 a month"
Natural Language Processing (NLP) Engineer,Algo,Lahore,Full-time
Trainee Embedded Systems Engineer,Devomech Solutions,Islamabad,"Rs 20,000 - Rs 30,000 a month"
Research Analyst,,Lahore,"Rs 70,000 a month"
Software Engineer,Educative,Lahore,Full-time
System Admin,Alpha Rages,Lahore,"Rs 50,000 - Rs 60,000 a month"
Senior Python Developer,Smart Placement (Pvt) Ltd,Lahore,"Rs 30,245 - Rs 99,151 a month"
Full Stack Developer(Django/Python + ReactJs),NKU Technologies Pvt.Ltd.,Lahore,"Rs 70,000 - Rs 90,000 a month"
Python Engineer,,Islamabad,Full-time
Jr. Python/Django Developer,Claystone Tech Pvt. Ltd,Rawalpindi,"Rs 10,000 a month"
HR Executive,Python Leads Pvt Ltd,Islamabad,"Rs 40,000 - Rs 45,000 a month"
Python Developer,KSense,Islamabad,"Rs 80,000 a month"
Python Developer,Smart Placement (Pvt) Ltd,Lahore,Full-time
Python Developer,Essentia Technologies (Pvt) Limited,Islamabad,"Rs 40,000 - Rs 60,000 a year"
Odoo/Python Developer,Dynexcel,Lahore,"Rs 40,000 - Rs 60,000 a month"
IT Networking Executive ( Night Shift),Python Leads Pvt Ltd,Islamabad,"Rs 35,000 - Rs 40,000 a month"
Data Recording and Analysis Intern,GoZayaan PK,Islamabad,"Rs 5,000 - Rs 10,000 a month"
Jobs in Telecom Sector,ASK Development,Islamabad,Full-time
python/django developer,Samaritan Technologies,Lahore,Full-time
Unity Developer,American Lyceum International School,Lahore,"Rs 40,000 - Rs 100,000 a month"
Jr. System Engineer,Simplicity Technologies Private Limited (STech.ai),Islamabad,Full-time
WebFocus Data Science,,Lahore,Full-time
Backend Developer,,Lahore,Full-time
SQA Engineer,The Knights,Lahore,"Rs 30,000 - Rs 50,000 a month"
Full Stack Developer,,Lahore,Full-time
"Part Time Data Scraper (Remote, international exp)",Reading Metro,Karachi,"Rs 65,000 - Rs 120,000 a month"
Data Scientist,,Islamabad,Full-time
Junior Software Engineer,QBXNet,Lahore,
Full Stack Developer,SAR ZONE,Faisalabad,"Rs 25,000 - Rs 70,000 a month"
Backend Intern,Jetnetix Solutions,Karachi,Full-time
PHP Intern,Mountainise Inc.,Lahore,Full-time
Python Developer,,Rawalpindi,Full-time
Python/Django Developer,Sigma Digital Solutions,Islamabad,Full-time
Call Quality Assurance Executive (Night Shift),Python Leads Pvt Ltd,Islamabad,"Rs 35,000 - Rs 45,000 a month"
Python Developer,Teknovate,Islamabad,Full-time
Python Web Developer,Parallel Technologies,Karachi,"Rs 40,000 - Rs 80,000 a month"
Python Developer,Mobylogix Pvt. Ltd.,Lahore,"Rs 120,000 a month"
Odoo Python Developer,BlueEast Private Limited,Lahore,Full-time
Python Developer,,Pakistan,
Python Developer,DGB Technologies,Lahore,Full-time
Database Administrator,Caramel Tech Studios,Lahore,
Data Analyst,Mountainise Inc.,Lahore,Full-time
Automation Developer Engineer - Python Engineer (50 Position...,,Islamabad,Full-time
Python Developer,,Lahore,
Python Developer (Morning Shift),Nixaam,Karachi,"Rs 20,000 - Rs 80,000 a month"
Senior Python Developer,Odyssey Analytics,Lahore,Full-time
Full Stack Developer,Adequate Solutions,Islamabad,"Rs 70,000 - Rs 90,000 a month"
Python/Django Web Developer,Simplicity Technologies Private Limited (STech.ai),Islamabad,Full-time
Computer Vision Engineer,The Knights,Islamabad,Full-time
Full Stack Developer,PREDAMS,Islamabad,"Rs 60,000 - Rs 90,000 a month"
Senior Python Developer,FOVIRO,Lahore,Full-time
Power BI Developer,Algo,Lahore,Full-time
Sr. Python Developer,EMPLIS,Islamabad,Part-time
STEM Trainer,Fun Doctrina,Islamabad,Full-time
Full Stack Developer,K&A Group,Lahore,"Rs 50,000 - Rs 100,000 a month"
ODOO Developer,Emplois Career,Lahore,"Rs 50,000 - Rs 100,000 a month"
Architect,Webseo Pakistan,Lahore,"Rs 50,000 a month"
Python Automation SQA Engineer (Selenium),Aitomation,Lahore,Full-time
Junior Data Engineer,Horizon Technologies,Karachi,"Rs 50,000 - Rs 100,000 a month"
Power BI Developer,Phenologix,Lahore,Full-time
Senior Python Developer,,Lahore,
Mean Stack Developer,Smart Placement (Pvt) Ltd,Lahore,"Rs 27,270 - Rs 93,104 a month"
Data Engineer,Nowasys Services,Lahore,Full-time
Teradata Operations DBA,,Islamabad,Full-time
Senior Backend Developer (Python),AIWORKS.AI,Lahore,Full-time
Data Scientist,Unifonic,Pakistan,Full-time
Sr. Python Developer,"dinCloud, Inc.",Islamabad,
FULLSTACK DEVELOPER,British American Tobacco,Lahore,Full-time
DevOps Engineer - All Levels,,Lahore,Full-time
Software Developer | Python| Vue.js,Smith + Andersen,Karachi,"Rs 60,000 - Rs 80,000 a month"
Full Stack Developer - MERN,Sigma Square PVT LTD,Islamabad,"Rs 70,000 - Rs 100,000 a month"
Senior Python Developer (AI / ML Remotely ),Zepto Systems Limited,Islamabad,Full-time
Python - Django Developer (Senior Mid-Level),KNYSYS,Karachi,Full-time
Penetration Tester,CreditBook,Islamabad,
AI Engineer,,Lahore,Full-time
,GenITeam,Pakistan,
,Enablers,Lahore,"Rs 100,000 a month"
,MTBC,Rawalpindi,Full-time
,OpenSol Global,Lahore,
,Relacom Pakistan (Pvt.) Ltd,Islamabad,"Rs 19,549 - Rs 56,701 a month"
,K&A Group,Lahore,"Rs 50,000 - Rs 100,000 a month"
,KNYSYS,Karachi,Full-time
,TechGenies Paksitan,Islamabad,Full-time
,Relacom Pakistan (Pvt.) Ltd,Islamabad,"Rs 15,778 - Rs 66,153 a month"
,Horizon Technologies,Karachi,"Rs 50,000 - Rs 100,000 a month"
,Algo,Lahore,Full-time
,AIWORKS.AI,Lahore,Full-time
,NP Rehab Physicans,Islamabad,Full-time
,Sigma Square PVT LTD,Islamabad,"Rs 70,000 - Rs 100,000 a month"
,UN,Pakistan,Temporary
,CreditBook,Islamabad,
,Avanceon MEA,Lahore,Full-time
,British American Tobacco,Lahore,Full-time
,Upgenics International,Lahore,Full-time
,Zepto Systems Limited,Islamabad,Full-time
,Zepto Systems Limited,Islamabad,Full-time
,Smart Placement (Pvt) Ltd,Lahore,"Rs 27,270 - Rs 93,104 a month"
,Avanceon MEA,Lahore,Full-time
title,companyName,companyLocation,salary,url
Python Developer,Britannia Airport Cars,Islamabad,"Rs 40,000 - Rs 60,000 a month",https://pk.indeed.com/jobs?q=python&start=1
Computer Vision Research Assistant Position,FAST,Islamabad,"Rs 70,000 a month",https://pk.indeed.com/jobs?q=python&start=1
Python/Django Developer,,Lahore,Full-time,https://pk.indeed.com/jobs?q=python&start=1
Research Analysts / Writers,Edvise Hub,Karachi,"Rs 55,000 a month",https://pk.indeed.com/jobs?q=python&start=1
Paid Internship for : Python / Javascript / Node.js / Json,System Development Services.,Karachi,"Rs 15,000 - Rs 25,000 a month",https://pk.indeed.com/jobs?q=python&start=1
Software Support Engineer,,Lahore,"Rs 60,000 a month",https://pk.indeed.com/jobs?q=python&start=1
Python/NodeJS Developer,Syslab Technologies,Islamabad,"Rs 130,000 a month",https://pk.indeed.com/jobs?q=python&start=1
Natural Language Processing (NLP) Engineer,Algo,Lahore,Full-time,https://pk.indeed.com/jobs?q=python&start=1
Python Engineer,,Lahore,"Rs 50,000 - Rs 120,000 a month",https://pk.indeed.com/jobs?q=python&start=1
Python Developer,Techesthete,Lahore,Full-time,https://pk.indeed.com/jobs?q=python&start=1
Associate Software Engineer,The Code Genesis,Lahore,"Rs 50,000 - Rs 70,000 a month",https://pk.indeed.com/jobs?q=python&start=1
Python Developer,Zelotic,Lahore,Full-time,https://pk.indeed.com/jobs?q=python&start=1
Python Developer,Pixarsart,Lahore,"Rs 75,000 - Rs 90,000 a month",https://pk.indeed.com/jobs?q=python&start=1
Embedded System Engineer,,Lahore,"Rs 45,000 a month",https://pk.indeed.com/jobs?q=python&start=1
Backend Developer - Python,Gettr,Pakistan,Full-time,https://pk.indeed.com/jobs?q=python&start=1
Python Developer,Kaleido Ventures Private Limited,Faisalabad,"Rs 75,000 a month",https://pk.indeed.com/jobs?q=python&start=20
Software Engineer,Educative,Lahore,Full-time,https://pk.indeed.com/jobs?q=python&start=20
Django Developer,Astute Softwares,Lahore,"Rs 70,000 - Rs 140,000 a month",https://pk.indeed.com/jobs?q=python&start=20
System Admin,Alpha Rages,Lahore,"Rs 50,000 - Rs 60,000 a month",https://pk.indeed.com/jobs?q=python&start=20
Python Engineer,,Islamabad,Full-time,https://pk.indeed.com/jobs?q=python&start=20
HR Executive,Python Leads Pvt Ltd,Islamabad,"Rs 40,000 - Rs 45,000 a month",https://pk.indeed.com/jobs?q=python&start=20
Jr. Python/Django Developer,Claystone Tech Pvt. Ltd,Rawalpindi,"Rs 10,000 a month",https://pk.indeed.com/jobs?q=python&start=20
Research Analyst,,Lahore,"Rs 70,000 a month",https://pk.indeed.com/jobs?q=python&start=20
Senior Python Developer,Smart Placement (Pvt) Ltd,Lahore,"Rs 30,245 - Rs 99,151 a month",https://pk.indeed.com/jobs?q=python&start=20
Full Stack Developer(Django/Python + ReactJs),NKU Technologies Pvt.Ltd.,Lahore,"Rs 70,000 - Rs 90,000 a month",https://pk.indeed.com/jobs?q=python&start=20
Python Developer,KSense,Islamabad,"Rs 80,000 a month",https://pk.indeed.com/jobs?q=python&start=20
Python Developer,Essentia Technologies (Pvt) Limited,Islamabad,"Rs 40,000 - Rs 60,000 a year",https://pk.indeed.com/jobs?q=python&start=20
Python Developer,Smart Placement (Pvt) Ltd,Lahore,Full-time,https://pk.indeed.com/jobs?q=python&start=20
Data Scientist,,Islamabad,Full-time,https://pk.indeed.com/jobs?q=python&start=20
Backend Developer - Python,Gettr,Pakistan,Full-time,https://pk.indeed.com/jobs?q=python&start=20
Odoo/Python Developer,Dynexcel,Lahore,"Rs 40,000 - Rs 60,000 a month",https://pk.indeed.com/jobs?q=python&start=30
Backend Developer,,Lahore,Full-time,https://pk.indeed.com/jobs?q=python&start=30
IT Networking Executive ( Night Shift),Python Leads Pvt Ltd,Islamabad,"Rs 35,000 - Rs 40,000 a month",https://pk.indeed.com/jobs?q=python&start=30
Jr. System Engineer,Simplicity Technologies Private Limited (STech.ai),Islamabad,Full-time,https://pk.indeed.com/jobs?q=python&start=30
Backend Intern,Jetnetix Solutions,Karachi,Full-time,https://pk.indeed.com/jobs?q=python&start=30
python/django developer,Samaritan Technologies,Lahore,Full-time,https://pk.indeed.com/jobs?q=python&start=30
WebFocus Data Science,,Lahore,Full-time,https://pk.indeed.com/jobs?q=python&start=30
SQA Engineer,The Knights,Lahore,"Rs 30,000 - Rs 50,000 a month",https://pk.indeed.com/jobs?q=python&start=30
"Part Time Data Scraper (Remote, international exp)",Reading Metro,Karachi,"Rs 65,000 - Rs 120,000 a month",https://pk.indeed.com/jobs?q=python&start=30
Unity Developer,American Lyceum International School,Lahore,"Rs 40,000 - Rs 100,000 a month",https://pk.indeed.com/jobs?q=python&start=30
Jobs in Telecom Sector,ASK Development,Islamabad,Full-time,https://pk.indeed.com/jobs?q=python&start=30
Junior Software Engineer,QBXNet,Lahore,,https://pk.indeed.com/jobs?q=python&start=30
Full Stack Developer,SAR ZONE,Faisalabad,"Rs 25,000 - Rs 70,000 a month",https://pk.indeed.com/jobs?q=python&start=30
PHP Intern,Mountainise Inc.,Lahore,Full-time,https://pk.indeed.com/jobs?q=python&start=30
Backend Developer - Python,Gettr,Pakistan,Full-time,https://pk.indeed.com/jobs?q=python&start=30
Python Developer,,Rawalpindi,Full-time,https://pk.indeed.com/jobs?q=python&start=40
Call Quality Assurance Executive (Night Shift),Python Leads Pvt Ltd,Islamabad,"Rs 35,000 - Rs 45,000 a month",https://pk.indeed.com/jobs?q=python&start=40
Python Developer,Teknovate,Islamabad,Full-time,https://pk.indeed.com/jobs?q=python&start=40
Python Web Developer,Parallel Technologies,Karachi,"Rs 40,000 - Rs 80,000 a month",https://pk.indeed.com/jobs?q=python&start=40
Database Administrator,Caramel Tech Studios,Lahore,,https://pk.indeed.com/jobs?q=python&start=40
Odoo Python Developer,BlueEast Private Limited,Lahore,Full-time,https://pk.indeed.com/jobs?q=python&start=40
Python Developer,Mobylogix Pvt. Ltd.,Lahore,"Rs 120,000 a month",https://pk.indeed.com/jobs?q=python&start=40
Python Developer,,Pakistan,,https://pk.indeed.com/jobs?q=python&start=40
Python Developer,DGB Technologies,Lahore,Full-time,https://pk.indeed.com/jobs?q=python&start=40
Data Analyst,Mountainise Inc.,Lahore,Full-time,https://pk.indeed.com/jobs?q=python&start=40
Python/Django Developer,Sigma Digital Solutions,Islamabad,Full-time,https://pk.indeed.com/jobs?q=python&start=40
Python Developer,,Lahore,,https://pk.indeed.com/jobs?q=python&start=40
Automation Developer Engineer - Python Engineer (50 Position...,,Islamabad,Full-time,https://pk.indeed.com/jobs?q=python&start=40
Backend Developer - Python,Gettr,Pakistan,Full-time,https://pk.indeed.com/jobs?q=python&start=40
Full Stack Developer,Adequate Solutions,Islamabad,"Rs 70,000 - Rs 90,000 a month",https://pk.indeed.com/jobs?q=python&start=40
Senior Python Developer,FOVIRO,Lahore,Full-time,https://pk.indeed.com/jobs?q=python&start=50
Python Developer (Morning Shift),Nixaam,Karachi,"Rs 20,000 - Rs 80,000 a month",https://pk.indeed.com/jobs?q=python&start=50
Senior Python Developer,Odyssey Analytics,Lahore,Full-time,https://pk.indeed.com/jobs?q=python&start=50
Python/Django Web Developer,Simplicity Technologies Private Limited (STech.ai),Islamabad,Full-time,https://pk.indeed.com/jobs?q=python&start=50
Full Stack Developer,PREDAMS,Islamabad,"Rs 60,000 - Rs 90,000 a month",https://pk.indeed.com/jobs?q=python&start=50
STEM Trainer,Fun Doctrina,Islamabad,Full-time,https://pk.indeed.com/jobs?q=python&start=50
Power BI Developer,Algo,Lahore,Full-time,https://pk.indeed.com/jobs?q=python&start=50
Sr. Python Developer,EMPLIS,Islamabad,Part-time,https://pk.indeed.com/jobs?q=python&start=50
ODOO Developer,Emplois Career,Lahore,"Rs 50,000 - Rs 100,000 a month",https://pk.indeed.com/jobs?q=python&start=50
Architect,Webseo Pakistan,Lahore,"Rs 50,000 a month",https://pk.indeed.com/jobs?q=python&start=50
Junior Data Engineer,Horizon Technologies,Karachi,"Rs 50,000 - Rs 100,000 a month",https://pk.indeed.com/jobs?q=python&start=50
Full Stack Developer - MERN,Sigma Square PVT LTD,Islamabad,"Rs 70,000 - Rs 100,000 a month",https://pk.indeed.com/jobs?q=python&start=50
Full Stack Developer,K&A Group,Lahore,"Rs 50,000 - Rs 100,000 a month",https://pk.indeed.com/jobs?q=python&start=50
Python Automation SQA Engineer (Selenium),Aitomation,Lahore,Full-time,https://pk.indeed.com/jobs?q=python&start=50
Backend Developer - Python,Gettr,Pakistan,Full-time,https://pk.indeed.com/jobs?q=python&start=50
Sr. Python Developer,"dinCloud, Inc.",Islamabad,,https://pk.indeed.com/jobs?q=python&start=60
Data Engineer,Nowasys Services,Lahore,Full-time,https://pk.indeed.com/jobs?q=python&start=60
Senior Python Developer,,Lahore,,https://pk.indeed.com/jobs?q=python&start=60
Teradata Operations DBA,,Islamabad,Full-time,https://pk.indeed.com/jobs?q=python&start=60
Power BI Developer,Phenologix,Lahore,Full-time,https://pk.indeed.com/jobs?q=python&start=60
Mean Stack Developer,Smart Placement (Pvt) Ltd,Lahore,"Rs 27,270 - Rs 93,104 a month",https://pk.indeed.com/jobs?q=python&start=60
Senior Backend Developer (Python),AIWORKS.AI,Lahore,Full-time,https://pk.indeed.com/jobs?q=python&start=60
FULLSTACK DEVELOPER,British American Tobacco,Lahore,Full-time,https://pk.indeed.com/jobs?q=python&start=60
Automation Test Engineer,NKU Technologies Pvt.Ltd.,Lahore,"Rs 40,000 - Rs 60,000 a month",https://pk.indeed.com/jobs?q=python&start=60
Penetration Tester,CreditBook,Islamabad,,https://pk.indeed.com/jobs?q=python&start=60
Software Developer | Python| Vue.js,Smith + Andersen,Karachi,"Rs 60,000 - Rs 80,000 a month",https://pk.indeed.com/jobs?q=python&start=60
Senior Python Developer (AI / ML Remotely ),Zepto Systems Limited,Islamabad,Full-time,https://pk.indeed.com/jobs?q=python&start=60
Quality Assurance (QA) Engineer,TechGenies Paksitan,Islamabad,Full-time,https://pk.indeed.com/jobs?q=python&start=60
Backend Developer - Python,Gettr,Pakistan,Full-time,https://pk.indeed.com/jobs?q=python&start=60
Machine learning Engineer,Aozic,Rawalpindi,Full-time,https://pk.indeed.com/jobs?q=python&start=60
DevOps Engineer - All Levels,,Lahore,Full-time,https://pk.indeed.com/jobs?q=python&start=70
Python - Django Developer (Senior Mid-Level),KNYSYS,Karachi,Full-time,https://pk.indeed.com/jobs?q=python&start=70
Automation Developer(Python engineer),Emplois Career,Islamabad,"Rs 50,000 - Rs 120,000 a month",https://pk.indeed.com/jobs?q=python&start=70
Node JS Developer,Imroz,Lahore,"Rs 60,000 - Rs 90,000 a month",https://pk.indeed.com/jobs?q=python&start=70
AI Engineer,,Lahore,Full-time,https://pk.indeed.com/jobs?q=python&start=70
"Information Management Officer (NOA), Temporary Appointment...",United Nations Pakistan,Pakistan,Temporary,https://pk.indeed.com/jobs?q=python&start=70
"Information Management Officer (NOB), Temporary Appointment...",United Nations Pakistan,Pakistan,Temporary,https://pk.indeed.com/jobs?q=python&start=70
Data Scientist (Proactive Pipeline),,Islamabad,,https://pk.indeed.com/jobs?q=python&start=70
UAS Engineer,UAS Global PVT Ltd,Karachi,"Rs 40,000 - Rs 50,000 a month",https://pk.indeed.com/jobs?q=python&start=70
Full Stack Developer,Toptech.team,Islamabad,Part-time,https://pk.indeed.com/jobs?q=python&start=70
Quality Assurance Engineer - Software & Website (Must have e...,Seeka Technology,Islamabad,Full-time,https://pk.indeed.com/jobs?q=python&start=70
Data Engineer - Google Cloud,Algo,Lahore,Full-time,https://pk.indeed.com/jobs?q=python&start=70
Senior React JS Developer,Mirindaweb,Lahore,"Rs 60,000 - Rs 120,000 a month",https://pk.indeed.com/jobs?q=python&start=70
devOPS Enginers,Enablers,Lahore,"Rs 100,000 a month",https://pk.indeed.com/jobs?q=python&start=70
Backend Developer - Python,Gettr,Pakistan,Full-time,https://pk.indeed.com/jobs?q=python&start=70
ERP Techno Functional Consultant,Aramis Enterprise Solutions,Lahore,"Rs 50,000 a month",https://pk.indeed.com/jobs?q=python&start=80
AI Research Engineer / Research Fellowship (Remote),Zepto Systems Limited,Islamabad,Full-time,https://pk.indeed.com/jobs?q=python&start=80
Solution Integration,,Islamabad,"Rs 15,778 - Rs 66,153 a month",https://pk.indeed.com/jobs?q=python&start=80
Project Associate – Digital Literacy,,Karachi,"Rs 50,000 a month",https://pk.indeed.com/jobs?q=python&start=80
Digital Analytics Manager,British American Tobacco,Lahore,Full-time,https://pk.indeed.com/jobs?q=python&start=80
DevOps Engineer,,Islamabad,"Rs 32,216 - Rs 121,791 a month",https://pk.indeed.com/jobs?q=python&start=80
Software Test Engineer,,Lahore,,https://pk.indeed.com/jobs?q=python&start=80
Laravel Developer,Social Club 24,Multan,"Rs 30,000 - Rs 50,000 a month",https://pk.indeed.com/jobs?q=python&start=80
Business Analyst,NP Rehab Physicans,Islamabad,Full-time,https://pk.indeed.com/jobs?q=python&start=80
Python Developer,,Karachi,Full-time,https://pk.indeed.com/jobs?q=python&start=80
IT Faculty,Aptech Site Center,Karachi,"Rs 20,000 - Rs 35,000 a month",https://pk.indeed.com/jobs?q=python&start=80
Data Analyst,Apricart E-Stores Pvt Ltd,Karachi,Full-time,https://pk.indeed.com/jobs?q=python&start=80
Web Developer,Araam.pk,Lahore,Full-time,https://pk.indeed.com/jobs?q=python&start=80
Backend Developer - Python,Gettr,Pakistan,Full-time,https://pk.indeed.com/jobs?q=python&start=80
Machine Learning Engineer,Caramel Tech Studios,Lahore,,https://pk.indeed.com/jobs?q=python&start=80
Data Analyst // 1 Position,Zeta Technologies,Islamabad,,https://pk.indeed.com/jobs?q=python&start=90
Data Engineer,Nowasys Ltd,Lahore,Full-time,https://pk.indeed.com/jobs?q=python&start=90
Senior Python Flask Developer,ONE Technology Services,Karachi,Full-time,https://pk.indeed.com/jobs?q=python&start=90
"Data Associate, FIG Data Journalism",,Islamabad,,https://pk.indeed.com/jobs?q=python&start=90
PHP Developer,3DM Solutions,Karachi,"Rs 30,000 - Rs 35,000 a month",https://pk.indeed.com/jobs?q=python&start=90
Ruby on Rails / Python Developer,TopBoffin,Lahore,Full-time,https://pk.indeed.com/jobs?q=python&start=90
Full-Stack Django Developer,Ignicube Pvt Ltd,Lahore,Full-time,https://pk.indeed.com/jobs?q=python&start=90
Software Developer,N7 PVT LTD,Islamabad,"Rs 50,000 - Rs 60,000 a month",https://pk.indeed.com/jobs?q=python&start=90
Python Automation Developer Engineer,Fulcrum Pvt Ltd,Islamabad,Full-time,https://pk.indeed.com/jobs?q=python&start=90
Senior Software Engineer (IoT),Broadstone technologies,Lahore,Full-time,https://pk.indeed.com/jobs?q=python&start=90
Full Stack Developer,Get Solutions,Karachi,"Rs 30,565 - Rs 97,456 a month",https://pk.indeed.com/jobs?q=python&start=90
MERN Stack Developer,Qbatch,Lahore,Full-time,https://pk.indeed.com/jobs?q=python&start=90
Knowledge Engineer,The Land Portal Foundation,Islamabad,Contract,https://pk.indeed.com/jobs?q=python&start=90
Backend Developer - Python,Gettr,Pakistan,Full-time,https://pk.indeed.com/jobs?q=python&start=90
Associate Engineer – React JS,Cloudways,Karachi,"Rs 40,000 - Rs 60,000 a month",https://pk.indeed.com/jobs?q=python&start=90
Dot Net Developer,,Lahore,Full-time,https://pk.indeed.com/jobs?q=python&start=110
Python Developer - Udhaar Book (Powered by Qureos),Qureos,Karachi,,https://pk.indeed.com/jobs?q=python&start=110
Software Engineer,proppioneers,Karachi,"Rs 80,000 - Rs 120,000 a month",https://pk.indeed.com/jobs?q=python&start=110
Non-Voice Sales Executive (Night Shift),Python Leads Pvt Ltd,Islamabad,"Rs 25,000 a month",https://pk.indeed.com/jobs?q=python&start=110
Technical Content Engineer,Educative,Lahore,Full-time,https://pk.indeed.com/jobs?q=python&start=110
Research Scientist (Decisioning),,Karachi,,https://pk.indeed.com/jobs?q=python&start=110
Linux System Administrator,ePlanet Pakistan,Karachi,"Rs 50,000 - Rs 100,000 a month",https://pk.indeed.com/jobs?q=python&start=110
Technical Recruiter,Smart Placement (Pvt) Ltd,Rawalpindi,Full-time,https://pk.indeed.com/jobs?q=python&start=110
Backend PHP Developer,Zepto Systems Limited,Lahore,Full-time,https://pk.indeed.com/jobs?q=python&start=110
QUALITY ENGINEER II,,Islamabad,,https://pk.indeed.com/jobs?q=python&start=110
IioT Project Engineer,VentureForce Global,Karachi,"Rs 50,000 - Rs 70,000 a month",https://pk.indeed.com/jobs?q=python&start=110
Data Engineer,Atheneum Partners,Lahore,Full-time,https://pk.indeed.com/jobs?q=python&start=110
Integration Engineer,,Islamabad,"Rs 5,000 - Rs 10,000 a month",https://pk.indeed.com/jobs?q=python&start=110
Associate I,,Karachi,Full-time,https://pk.indeed.com/jobs?q=python&start=110
Backend Developer - Python,Gettr,Pakistan,Full-time,https://pk.indeed.com/jobs?q=python&start=110
Sr. Python Developer (BigData / DW Remotely),Zepto Systems Limited,Islamabad,Full-time,https://pk.indeed.com/jobs?q=python&start=120
Software Team Lead,Cabcall Outsource SMC Pvt Ltd.,Islamabad,Full-time,https://pk.indeed.com/jobs?q=python&start=120
DevOps Engineer,,Lahore,Full-time,https://pk.indeed.com/jobs?q=python&start=120
DevSecOps Engineer,,Islamabad,,https://pk.indeed.com/jobs?q=python&start=120
Software Engineer,Atlas,Pakistan,,https://pk.indeed.com/jobs?q=python&start=120
App. developer,Kea Consultants (SMC-Private) Limited,Islamabad,Full-time,https://pk.indeed.com/jobs?q=python&start=120
VAS Engineer II,Sandvine,Islamabad,Full-time,https://pk.indeed.com/jobs?q=python&start=120
Sr. Data Scientist,TechGenies Paksitan,Islamabad,Full-time,https://pk.indeed.com/jobs?q=python&start=120
Senior Data Scientist,ONE Technology Services,Karachi,Full-time,https://pk.indeed.com/jobs?q=python&start=120
Lead Data Engineer - Big Data,,Islamabad,Full-time,https://pk.indeed.com/jobs?q=python&start=120
Machine/Deep/Reinforcement Learning Engineer,DGB Technologies,Lahore,Full-time,https://pk.indeed.com/jobs?q=python&start=120
Experienced Laravel Developer,WasiSoft Technology,Lahore,"Rs 20,000 a month",https://pk.indeed.com/jobs?q=python&start=120
Automation Developer Engineer (Python Engineer),,Islamabad,Full-time,https://pk.indeed.com/jobs?q=python&start=120
BI Quantitative Analyst,Caramel Tech Studios,Lahore,,https://pk.indeed.com/jobs?q=python&start=120
Backend Developer - Python,Gettr,Pakistan,Full-time,https://pk.indeed.com/jobs?q=python&start=120
Senior Machine Learning Engineer,Developers Studio,Lahore,Full-time,https://pk.indeed.com/jobs?q=python&start=140
PHP Developer,HR Legends,Karachi,"Rs 40,000 - Rs 60,000 a month",https://pk.indeed.com/jobs?q=python&start=140
Senior/Mid Level Backend Developer,,Lahore,Full-time,https://pk.indeed.com/jobs?q=python&start=140
Senior Linux Administrator,Khazana Enterprise Pvt Ltd,Lahore,Full-time,https://pk.indeed.com/jobs?q=python&start=140
CEM Software Engineer,,Islamabad,Full-time,https://pk.indeed.com/jobs?q=python&start=140
Senior Manager Back-End Development,Innovatech Solutions,Karachi,"Rs 89,000 - Rs 120,000 a month",https://pk.indeed.com/jobs?q=python&start=140
Infrastructure Engineer,Teknovate,Gujranwala,Full-time,https://pk.indeed.com/jobs?q=python&start=140
CEM Software Engineer (CEM),,Lahore,Full-time,https://pk.indeed.com/jobs?q=python&start=140
Software Engineer,"Lahore, Punjab",Pakistan,Full-time,https://pk.indeed.com/jobs?q=python&start=140
Senior Software Quality Engineer,Unifonic,Lahore,Full-time,https://pk.indeed.com/jobs?q=python&start=140
"Senior Reporting & Data Analyst (Remote, international exp)",Infina Health Transportation,Karachi,"Rs 90,000 - Rs 130,000 a month",https://pk.indeed.com/jobs?q=python&start=140
Senior Engineering Manager,Educative,Lahore,Full-time,https://pk.indeed.com/jobs?q=python&start=140
BlockChain Developer,Zepto Systems Limited,Lahore,Full-time,https://pk.indeed.com/jobs?q=python&start=140
Cloud Administrator,Apricart E-Stores Pvt Ltd,Karachi,Full-time,https://pk.indeed.com/jobs?q=python&start=140
Backend Developer - Python,Gettr,Pakistan,Full-time,https://pk.indeed.com/jobs?q=python&start=140
Senior/Mid Level Full Stack Developer,,Lahore,Full-time,https://pk.indeed.com/jobs?q=python&start=190
Back End Developer,Fulcrum Pvt Ltd,Karachi,Full-time,https://pk.indeed.com/jobs?q=python&start=190
Firewall Engineer - Pakistan,Mobiz,Karachi,Contract,https://pk.indeed.com/jobs?q=python&start=190
Senior Software Engineer,Coderzhunt,Lahore,Full-time,https://pk.indeed.com/jobs?q=python&start=190
"Engineering Manager, Software",Unifonic,Lahore,Full-time,https://pk.indeed.com/jobs?q=python&start=190
Odoo Developer,Cogilent Solutions Pvt Ltd,Islamabad,Full-time,https://pk.indeed.com/jobs?q=python&start=190
SQA Engineer,Staff Shaw Pvt Ltd.,Karachi,"Rs 60,000 - Rs 120,000 a month",https://pk.indeed.com/jobs?q=python&start=190
QA Engineer - Automation (Python),,Lahore,,https://pk.indeed.com/jobs?q=python&start=190
Python SQA Automation engineer,Aitomation,Lahore,"Rs 120,000 - Rs 130,000 a month",https://pk.indeed.com/jobs?q=python&start=190
Cloud Engineer,Vultara Inc.,Islamabad,Full-time,https://pk.indeed.com/jobs?q=python&start=190
Senior Blockchain Developer,Arham Soft (Pvt) Ltd.,Lahore,Full-time,https://pk.indeed.com/jobs?q=python&start=190
Senior Technical Lead,,Lahore,Full-time,https://pk.indeed.com/jobs?q=python&start=190
Laravel developer/ PHP,Nexus Technology,Karachi,"Rs 40,000 - Rs 80,000 a month",https://pk.indeed.com/jobs?q=python&start=190
Big Data Integrations Engineer Fully Remote),Mi-C3 International,Lahore,Full-time,https://pk.indeed.com/jobs?q=python&start=190
Backend Developer - Python,Gettr,Pakistan,Full-time,https://pk.indeed.com/jobs?q=python&start=190
DevOps Engineer,Plentys.pk,Karachi,"Rs 75,000 - Rs 90,000 a month",https://pk.indeed.com/jobs?q=python&start=200
Senior QA Engineer,,Lahore,Full-time,https://pk.indeed.com/jobs?q=python&start=200
Data Analyst (Client Data Services),,Karachi,,https://pk.indeed.com/jobs?q=python&start=200
SW Developer,,Islamabad,"Rs 5,000 - Rs 10,000 a month",https://pk.indeed.com/jobs?q=python&start=200
Senior Software Quality Engineer - Security,Unifonic,Lahore,Full-time,https://pk.indeed.com/jobs?q=python&start=200
SecOps Engineer,NayaPay,Karachi,Full-time,https://pk.indeed.com/jobs?q=python&start=200
DevOps Engineer,Teknovate,Gujranwala,Full-time,https://pk.indeed.com/jobs?q=python&start=200
CEM Software Engineer,Emplois Career,Islamabad,Full-time,https://pk.indeed.com/jobs?q=python&start=200
Computer Vision Lead Researcher,Executive Search Worldwide,Islamabad,,https://pk.indeed.com/jobs?q=python&start=200
Project Manager,Devmet,Multan,,https://pk.indeed.com/jobs?q=python&start=200
Senior Python Developer,TekRevol,Karachi,Full-time,https://pk.indeed.com/jobs?q=python&start=200
Software Quality Assurance Engineer (SQA),IT Verticals Inc,Karachi,Full-time,https://pk.indeed.com/jobs?q=python&start=200
DevOps Engineer,365 Care Private Limited,Lahore,"Rs 32,518 - Rs 122,149 a month",https://pk.indeed.com/jobs?q=python&start=200
R&D Engineer,,Lahore,Full-time,https://pk.indeed.com/jobs?q=python&start=200
Backend Developer - Python,Gettr,Pakistan,Full-time,https://pk.indeed.com/jobs?q=python&start=200
Full Stack Software Developer,Mushawar UK Ltd,Karachi,Full-time,https://pk.indeed.com/jobs?q=python&start=230
Site Reliability Engineer,Mushawar UK Ltd,Karachi,Full-time,https://pk.indeed.com/jobs?q=python&start=230
Senior Frontend Developer (React JS),AIWORKS.AI,Lahore,Full-time,https://pk.indeed.com/jobs?q=python&start=230
Data Scientist,CadreSpace,Lahore,Full-time,https://pk.indeed.com/jobs?q=python&start=230
Senior Teradata Applications Consultant,,Islamabad,Full-time,https://pk.indeed.com/jobs?q=python&start=230
Lead Data Engineer,CreditBook,Lahore,,https://pk.indeed.com/jobs?q=python&start=230
Tech Lead: Software Systems and DevOps,Xgrid,Islamabad,Full-time,https://pk.indeed.com/jobs?q=python&start=230
Remote Senior Full Stack Developer,MonetizeMore,Pakistan,Full-time,https://pk.indeed.com/jobs?q=python&start=230
Marketing Research Coordinator,,Karachi,,https://pk.indeed.com/jobs?q=python&start=230
VB.NET Developer,Intelligent Brain Solution,Pakistan,,https://pk.indeed.com/jobs?q=python&start=230
"Sr. Associate Product Manager, Data Management Solutions",,Islamabad,,https://pk.indeed.com/jobs?q=python&start=230
Trade Document Specialist,Fulcrum Pvt Ltd,Karachi,Full-time,https://pk.indeed.com/jobs?q=python&start=230
Network Security Engineer (Linux platform),ENTERTAINER FZ LLC,Lahore,Full-time,https://pk.indeed.com/jobs?q=python&start=230
Hiring DevOps Engineers- Permanent Remote,BCS Technology,Karachi,Full-time,https://pk.indeed.com/jobs?q=python&start=230
Backend Developer - Python,Gettr,Pakistan,Full-time,https://pk.indeed.com/jobs?q=python&start=230
Senior Data Engineer,FINCA International,Pakistan,,https://pk.indeed.com/jobs?q=python&start=240
AWS DevOps Engineer,Smart Placement (Pvt) Ltd,Lahore,Full-time,https://pk.indeed.com/jobs?q=python&start=240
GCP Devops Engineer,Teknovate,Lahore,Full-time,https://pk.indeed.com/jobs?q=python&start=240
Web Developer,AAHA Soft Technologies,Karachi,Full-time,https://pk.indeed.com/jobs?q=python&start=240
Team Lead Big Data/ Data Engineer (Apache Spark),ENTERTAINER FZ LLC,Lahore,Full-time,https://pk.indeed.com/jobs?q=python&start=240
Engineering Manager,Darvis Inc,Islamabad,Full-time,https://pk.indeed.com/jobs?q=python&start=240
Senior / Lead DevOps Engineer,MoonGaming for The Moon Group Investment LLC,Lahore,Full-time,https://pk.indeed.com/jobs?q=python&start=240
Senior Linux Administrator,,Karachi,,https://pk.indeed.com/jobs?q=python&start=240
Software Engineer - ROR,,Lahore,,https://pk.indeed.com/jobs?q=python&start=240
QA Automation Lead,Stella Technology,Islamabad,Full-time,https://pk.indeed.com/jobs?q=python&start=240
Captain Payments Manager,,Karachi,,https://pk.indeed.com/jobs?q=python&start=240
DevOps Engineer,CEQUENS,Islamabad,Full-time,https://pk.indeed.com/jobs?q=python&start=240
Senior Data Engineer,365 Care Private Limited,Lahore,Full-time,https://pk.indeed.com/jobs?q=python&start=240
Senior Software Engineer - DevOps,,Islamabad,Full-time,https://pk.indeed.com/jobs?q=python&start=240
Backend Developer - Python,Gettr,Pakistan,Full-time,https://pk.indeed.com/jobs?q=python&start=240
Lead Data Engineer,Atlas,Islamabad,,https://pk.indeed.com/jobs?q=python&start=250
Angular/React Developer - Pakistan,Mobiz,Karachi,Contract,https://pk.indeed.com/jobs?q=python&start=250
Senior Vice President --- (Technical Services),Zepto Systems Limited,Karachi,Full-time,https://pk.indeed.com/jobs?q=python&start=250
Lead DevOps Engineer,Smart Placement (Pvt) Ltd,Lahore,"Rs 116,564 - Rs 382,237 a year",https://pk.indeed.com/jobs?q=python&start=250
Software Engineer - Backend,,Pakistan,,https://pk.indeed.com/jobs?q=python&start=250
Web Application Engineer,Maven Solutions,Pakistan,,https://pk.indeed.com/jobs?q=python&start=250
DevOps Engineer,ENTERTAINER FZ LLC,Lahore,Full-time,https://pk.indeed.com/jobs?q=python&start=250
Senior Software Engineer - Part Time,,Lahore,Part-time,https://pk.indeed.com/jobs?q=python&start=250
Senior QA Automation Engineer (Onsite / Remotely Both),Zepto Systems Limited,Islamabad,Full-time,https://pk.indeed.com/jobs?q=python&start=250
Senior Oracle/SQL Server DBA,,Karachi,,https://pk.indeed.com/jobs?q=python&start=250
Linux System Administrator,,Karachi,,https://pk.indeed.com/jobs?q=python&start=250
Team Lead / Full Stack Developer,Zamooq,Muzaffarabad,Full-time,https://pk.indeed.com/jobs?q=python&start=250
Senior Full Stack Developer,VisionX Technologies,Islamabad,Full-time,https://pk.indeed.com/jobs?q=python&start=250
Network Architect (CCIE)-(Remote/On-site),InertiaSoft Pvt Ltd,Karachi,Full-time,https://pk.indeed.com/jobs?q=python&start=250
Backend Developer - Python,Gettr,Pakistan,Full-time,https://pk.indeed.com/jobs?q=python&start=250
SQA Automation Engineer,Hashe Computer Solutions (Pvt) Ltd.,Lahore,Full-time,https://pk.indeed.com/jobs?q=python&start=260
Specialist-Customer Value & Experience Management,,Karachi,,https://pk.indeed.com/jobs?q=python&start=260
Level 2 Operations,,Islamabad,"Rs 5,000 - Rs 6,000 a month",https://pk.indeed.com/jobs?q=python&start=260
Back End Developer,Curogram,Karachi,Contract,https://pk.indeed.com/jobs?q=python&start=260
Python Flask Developer,ONE Technology Services,Karachi,Full-time,https://pk.indeed.com/jobs?q=python&start=260
Senior DevOps Engineer,,Islamabad,Full-time,https://pk.indeed.com/jobs?q=python&start=260
Senior Software Development Engineer in Test,,Islamabad,,https://pk.indeed.com/jobs?q=python&start=260
Cloud Infrastructure Engineer,,Lahore,,https://pk.indeed.com/jobs?q=python&start=260
DevOps (AWS) Engineer,,Lahore,,https://pk.indeed.com/jobs?q=python&start=260
DevOps Engineer,Nakisa,Lahore,,https://pk.indeed.com/jobs?q=python&start=260
Senior Software Engineer (WordPress),iENGINEERING,Islamabad,Full-time,https://pk.indeed.com/jobs?q=python&start=260
Back-end Developer,786tech,Karachi,,https://pk.indeed.com/jobs?q=python&start=260
QA Tech Lead,Qureos,Karachi,,https://pk.indeed.com/jobs?q=python&start=260
Backend Developer - Python,Gettr,Pakistan,Full-time,https://pk.indeed.com/jobs?q=python&start=260
Senior Linux/Virtualization Engineer (40),,Karachi,,https://pk.indeed.com/jobs?q=python&start=260
"Sr. Software Engineer, Website",Stafona,Islamabad,,https://pk.indeed.com/jobs?q=python&start=270
Azure DevOps Engineer,MXM Consulting,Lahore,Full-time,https://pk.indeed.com/jobs?q=python&start=270
Senior Software Quality Engineer - Performance,Unifonic,Lahore,Full-time,https://pk.indeed.com/jobs?q=python&start=270
Solutions Architect,Arpatech Pvt Ltd,Karachi,Full-time,https://pk.indeed.com/jobs?q=python&start=270
DevOps Engineer,DinCloud Pakistan,Islamabad,Temporary,https://pk.indeed.com/jobs?q=python&start=270
DevOps Engineer,DataQ Health,Karachi,Full-time,https://pk.indeed.com/jobs?q=python&start=270
Sr. Software Quality & Automation Engineer,Atlas,Pakistan,,https://pk.indeed.com/jobs?q=python&start=270
Principal DevOps Engineer,Integry,Pakistan,Full-time,https://pk.indeed.com/jobs?q=python&start=270
Senior NodeJS Developer,Softoo Pvt Ltd,Karachi,Full-time,https://pk.indeed.com/jobs?q=python&start=270
Customer Integration Engineer,,Karachi,Full-time,https://pk.indeed.com/jobs?q=python&start=270
Senior C++ Developer,,Karachi,,https://pk.indeed.com/jobs?q=python&start=270
Teradata Performance DBA,,Islamabad,Full-time,https://pk.indeed.com/jobs?q=python&start=270
Senior Graphics WebGL Designer,Smart Placement (Pvt) Ltd,Islamabad,Full-time,https://pk.indeed.com/jobs?q=python&start=270
Senior Software Engineer,Codora Pvt. Ltd,Islamabad,Full-time,https://pk.indeed.com/jobs?q=python&start=270
Backend Developer - Python,Gettr,Pakistan,Full-time,https://pk.indeed.com/jobs?q=python&start=270
Senior C++ Software Engineer,,Karachi,,https://pk.indeed.com/jobs?q=python&start=280
Data Engineering Manager,,Lahore,,https://pk.indeed.com/jobs?q=python&start=280
Cloud Engineer III,,Islamabad,,https://pk.indeed.com/jobs?q=python&start=280
Growth Hacker,Qureos,Karachi,,https://pk.indeed.com/jobs?q=python&start=280
Cloud Security Architect,365 Care Private Limited,Lahore,Full-time,https://pk.indeed.com/jobs?q=python&start=280
Senior Strategic Analyst,,Lahore,,https://pk.indeed.com/jobs?q=python&start=280
Senior Full Stack Developer ( Night Shift),Python Leads Pvt Ltd,Islamabad,Full-time,https://pk.indeed.com/jobs?q=python&start=280
DevOPS Engineer (Level 3),,Islamabad,Full-time,https://pk.indeed.com/jobs?q=python&start=280
Openstack Engineer,Chapal,Karachi,Full-time,https://pk.indeed.com/jobs?q=python&start=280
Senior Software Engineer/ Tech Lead,Educative,Lahore,Full-time,https://pk.indeed.com/jobs?q=python&start=280
Senior Machine Learning Engineer,Minerva Executive Search,Islamabad,Full-time,https://pk.indeed.com/jobs?q=python&start=280
Sr devOps engineer,,Lahore,Full-time,https://pk.indeed.com/jobs?q=python&start=280
Trade Product Manager - Machine Learning and Trade Rules Lea...,Fulcrum Pvt Ltd,Karachi,Full-time,https://pk.indeed.com/jobs?q=python&start=280
Sr. Integration Engineer (ServiceNow),DinCloud Pakistan,Islamabad,Full-time,https://pk.indeed.com/jobs?q=python&start=280
Backend Developer - Python,Gettr,Pakistan,Full-time,https://pk.indeed.com/jobs?q=python&start=280
Distinguished/Principal Software Engineer - Python + Machine...,,Lahore,Full-time,https://pk.indeed.com/jobs?q=python&start=290
Senior Automation Engineer,,Karachi,Full-time,https://pk.indeed.com/jobs?q=python&start=290
Business Intelligence Developer,,Lahore,Full-time,https://pk.indeed.com/jobs?q=python&start=290
Python Architect,Executive Search Worldwide,Islamabad,,https://pk.indeed.com/jobs?q=python&start=290
Senior Automation QA Engineer,Zepto Systems Limited,Islamabad,Full-time,https://pk.indeed.com/jobs?q=python&start=290
Site Reliability Engineer (US Time),Spekit,Karachi,,https://pk.indeed.com/jobs?q=python&start=290
Senior Reactjs Developer (PHP Laravel),IconicTek Inc,Karachi,"Rs 60,000 - Rs 130,000 a month",https://pk.indeed.com/jobs?q=python&start=290
Senior Software Engineer - Lahore,,Lahore,,https://pk.indeed.com/jobs?q=python&start=290
Software Engineer (Night Shift),,Karachi,,https://pk.indeed.com/jobs?q=python&start=290
Senior Test Engineer - Automation (Python/Linux/Perl ) - Aft...,,Lahore,Full-time,https://pk.indeed.com/jobs?q=python&start=290
BigData Engineer,,Karachi,,https://pk.indeed.com/jobs?q=python&start=290
"Senior System Reliability Engineer, SMS",Unifonic,Lahore,Full-time,https://pk.indeed.com/jobs?q=python&start=290
Senior Software Engineer (Laravel),Lokal Ventures (Pvt.) Ltd.,Karachi,Full-time,https://pk.indeed.com/jobs?q=python&start=290
Software Engineer,,Lahore,Full-time,https://pk.indeed.com/jobs?q=python&start=290
Backend Developer - Python,Gettr,Pakistan,Full-time,https://pk.indeed.com/jobs?q=python&start=290
Business Intelligence Lead,,Karachi,Full-time,https://pk.indeed.com/jobs?q=python&start=300
Executive IT (Information Security),,Islamabad,,https://pk.indeed.com/jobs?q=python&start=300
Senior Software Engineer,"Lahore, Punjab",Pakistan,Full-time,https://pk.indeed.com/jobs?q=python&start=300
Principal Systems Engineer (On-site/Remote),InertiaSoft Pvt Ltd,Karachi,Full-time,https://pk.indeed.com/jobs?q=python&start=300
Principal/Staff/Senior Software Engineer - Python (Afternoon...,,Lahore,Full-time,https://pk.indeed.com/jobs?q=python&start=300
Tech Team Lead (Cross Platform),"Soft Tech Group, Inc",Lahore,Full-time,https://pk.indeed.com/jobs?q=python&start=300
DevOps Engineer,Xynotech,Karachi,Full-time,https://pk.indeed.com/jobs?q=python&start=300
AWS Developer,,Karachi,,https://pk.indeed.com/jobs?q=python&start=300
Senior DevOps Engineer,TechGenies Paksitan,Islamabad,Full-time,https://pk.indeed.com/jobs?q=python&start=300
Software Engineer C++,,Karachi,,https://pk.indeed.com/jobs?q=python&start=300
Blockchain Architecture,NXT Labs,Karachi,Full-time,https://pk.indeed.com/jobs?q=python&start=300
DevOps Engineer,NexDegree,Karachi,Full-time,https://pk.indeed.com/jobs?q=python&start=300
BI Automation QA,,Lahore,,https://pk.indeed.com/jobs?q=python&start=300
Senior Web Services Programmer,92 Techno,Islamabad,,https://pk.indeed.com/jobs?q=python&start=300
Backend Developer - Python,Gettr,Pakistan,Full-time,https://pk.indeed.com/jobs?q=python&start=300
"Sr. Software Engineer, Server Side Java",Stafona,Islamabad,,https://pk.indeed.com/jobs?q=python&start=320
DevOps Engineer,,Lahore,,https://pk.indeed.com/jobs?q=python&start=320
Sr Software Engineer (Backend),EMPGLABS,Karachi,Full-time,https://pk.indeed.com/jobs?q=python&start=320
Principal DevOps Engineer (On-site/Remote),InertiaSoft Pvt Ltd,Karachi,Full-time,https://pk.indeed.com/jobs?q=python&start=320
Senior Cloud Engineer,,Islamabad,,https://pk.indeed.com/jobs?q=python&start=320
Senior DevOps Engineers,"Virtelligence, Inc",Islamabad,Full-time,https://pk.indeed.com/jobs?q=python&start=320
Back End Developer (DevOps),Al-Nafi E-Learning Pvt Ltd,Karachi,Full-time,https://pk.indeed.com/jobs?q=python&start=320
Delivery Product Architect,,Karachi,Full-time,https://pk.indeed.com/jobs?q=python&start=320
PHP Developer,TeamX Pakistan,Karachi,Full-time,https://pk.indeed.com/jobs?q=python&start=320
Senior Full Stack Developers PHP/ MYSQL/ Restful API,"Virtelligence, Inc",Islamabad,Full-time,https://pk.indeed.com/jobs?q=python&start=320
Senior Data Engineer,FINCA Impact Finance,Lahore,Full-time,https://pk.indeed.com/jobs?q=python&start=320
Senior Laravel Developer,Future Technologies,Karachi,Full-time,https://pk.indeed.com/jobs?q=python&start=320
SQA Engineer,Enlyst smart recruiting,Karachi,"Rs 70,000 a month",https://pk.indeed.com/jobs?q=python&start=320
Senior Cloud Engineer (AWS),FAIR Consulting Group,Karachi,Full-time,https://pk.indeed.com/jobs?q=python&start=320
Backend Developer - Python,Gettr,Pakistan,Full-time,https://pk.indeed.com/jobs?q=python&start=320
Azure & Advanced Analytics Solution Architect,qordata,Pakistan,Full-time,https://pk.indeed.com/jobs?q=python&start=340
Lead Big Data Engineer,,Lahore,Full-time,https://pk.indeed.com/jobs?q=python&start=340
AR/VR Developer,,Islamabad,Full-time,https://pk.indeed.com/jobs?q=python&start=340
Senior Software Engineer,Unifonic,Lahore,Full-time,https://pk.indeed.com/jobs?q=python&start=340
"Associate Product Manager, Data Management Solutions",,Islamabad,,https://pk.indeed.com/jobs?q=python&start=340
Technical Lead,,Lahore,Full-time,https://pk.indeed.com/jobs?q=python&start=340
Infrastructure Engineer II,,Islamabad,,https://pk.indeed.com/jobs?q=python&start=340
Big Data Engineer,Harri Pakistan,Islamabad,Full-time,https://pk.indeed.com/jobs?q=python&start=340
Sr. DevOps Engineer,,Islamabad,Full-time,https://pk.indeed.com/jobs?q=python&start=340
Software Engineer II (Backend) - Operations Automation,,Karachi,,https://pk.indeed.com/jobs?q=python&start=340
Sr Analyst – Customer Support Operations,,Karachi,,https://pk.indeed.com/jobs?q=python&start=340
Site Reliability Engineer / DevOps,Loop,Lahore,,https://pk.indeed.com/jobs?q=python&start=340
Senior AR/VR Developer,,Islamabad,Full-time,https://pk.indeed.com/jobs?q=python&start=340
Software Developer,,Karachi,,https://pk.indeed.com/jobs?q=python&start=340
Backend Developer - Python,Gettr,Pakistan,Full-time,https://pk.indeed.com/jobs?q=python&start=340
Staff/Senior DevOps Engineer - AWS/GCP - Afternoon Shift,,Lahore,Full-time,https://pk.indeed.com/jobs?q=python&start=350
Full stack Developer (Java),,Karachi,Full-time,https://pk.indeed.com/jobs?q=python&start=350
Associate/Test Architect,,Lahore,,https://pk.indeed.com/jobs?q=python&start=350
SEO & PPC MANAGER,FACON,Karachi,Full-time,https://pk.indeed.com/jobs?q=python&start=350
Sr. Drupal Developer,DMK Consultancy International,Karachi,,https://pk.indeed.com/jobs?q=python&start=350
DevOps Architect,,Lahore,Full-time,https://pk.indeed.com/jobs?q=python&start=350
Senior SQA Analyst,,Karachi,Full-time,https://pk.indeed.com/jobs?q=python&start=350
Senior Backend Automation Testing Engineer,Harri Pakistan,Islamabad,Full-time,https://pk.indeed.com/jobs?q=python&start=350
Senior Full Stack Software Developer,Circadia Health,Karachi,Full-time,https://pk.indeed.com/jobs?q=python&start=350
Backend Developer - Python,Gettr,Pakistan,Full-time,https://pk.indeed.com/jobs?q=python&start=350
Senior AWS Back-End Developer,Circadia Health,Karachi,Full-time,https://pk.indeed.com/jobs?q=python&start=350
